*monokai-pro.txt*         For Neovim >= 0.8.0        Last change: 2023 June 04

==============================================================================
Table of Contents                              *monokai-pro-table-of-contents*

  - Pro                                                      |monokai-pro-pro|
  - Octagon                                              |monokai-pro-octagon|
  - Machine                                              |monokai-pro-machine|
  - Ristretto                                          |monokai-pro-ristretto|
  - Spectrum                                            |monokai-pro-spectrum|
  - Classic                                              |monokai-pro-classic|
  - Installation                                    |monokai-pro-installation|
  - Configuration                                  |monokai-pro-configuration|
  - Usage                                                  |monokai-pro-usage|
  - Command                                              |monokai-pro-command|

Find out more here monokai.pro <https://monokai.pro/>


PRO                                                          *monokai-pro-pro*


OCTAGON                                                  *monokai-pro-octagon*


MACHINE                                                  *monokai-pro-machine*


RISTRETTO                                              *monokai-pro-ristretto*


SPECTRUM                                                *monokai-pro-spectrum*


CLASSIC                                                  *monokai-pro-classic*


PLUGIN SUPPORT ~

- alpha-nvim <https://github.com/goolord/alpha-nvim>
- bufferLine.nvim <https://github.com/akinsho/bufferline.nvim>
- Cmp <https://github.com/hrsh7th/nvim-cmp>
- vim-illuminate <https://github.com/RRethy/vim-illuminate>
- indent-blankline <https://github.com/lukas-reineke/indent-blankline.nvim>
- neo-tree.nvim <https://github.com/nvim-neo-tree/neo-tree.nvim>
- nvim-notify <https://github.com/rcarriga/nvim-notify>
- renamer.nvim <https://github.com/filipdutescu/renamer.nvim>
- lualine.nvim <https://github.com/nvim-lualine/lualine.nvim>
- telescope.nvim <https://github.com/nvim-telescope/telescope.nvim>
- toggleterm.nvim <https://github.com/akinsho/toggleterm.nvim>
- nvim-treesitter <https://github.com/nvim-treesitter/nvim-treesitter>
- which-key.nvim <https://github.com/folke/which-key.nvim>
- breadcrumb.nvim <https://github.com/loctvl842/breadcrumb.nvim>
- nvim-navic <https://github.com/SmiteshP/nvim-navic>
- wilder.nvim <https://github.com/gelguy/wilder.nvim>
- Lightline <https://github.com/itchyny/lightline.vim>
- barbecue.nvim <https://github.com/utilyre/barbecue.nvim>
- dashboard-nvim <https://github.com/glepnir/dashboard-nvim>
- mason.nvim <https://github.com/williamboman/mason.nvim>


INSTALLATION                                        *monokai-pro-installation*

vim-plug <https://github.com/junegunn/vim-plug>

>vim
    Plug 'loctvl842/monokai-pro.nvim'
<

packer <https://github.com/wbthomason/packer.nvim>

>lua
    use {
      "loctvl842/monokai-pro.nvim",
      config = function()
        require("monokai-pro").setup()
      end
    }
<


CONFIGURATION                                      *monokai-pro-configuration*

There are several themes included in this plugin.

- |monokai-pro-pro| – Monokai Pro _(default)_
- |monokai-pro-octagon| – Monokai Pro (Filter Octagon)
- |monokai-pro-machine| – Monokai Pro (Filter Machine)
- |monokai-pro-ristretto| – Monokai Pro (Filter Machine)
- |monokai-pro-spectrum| – Monokai Pro (Filter Machine)
- |monokai-pro-classic| – Monokai Classic

Example configuration:

>lua
    require("monokai-pro").setup({
      transparent_background = false,
      terminal_colors = true,
      devicons = true, -- highlight the icons of `nvim-web-devicons`
      styles = {
        comment = { italic = true },
        keyword = { italic = true }, -- any other keyword
        type = { italic = true }, -- (preferred) int, long, char, etc
        storageclass = { italic = true }, -- static, register, volatile, etc
        structure = { italic = true }, -- struct, union, enum, etc
        parameter = { italic = true }, -- parameter pass in function
        annotation = { italic = true },
        tag_attribute = { italic = true }, -- attribute of tag in reactjs
      },
      filter = "pro", -- classic | octagon | pro | machine | ristretto | spectrum
      -- Enable this will disable filter option
      day_night = {
        enable = false, -- turn off by default
        day_filter = "pro", -- classic | octagon | pro | machine | ristretto | spectrum
        night_filter = "spectrum", -- classic | octagon | pro | machine | ristretto | spectrum
      },
      inc_search = "background", -- underline | background
      background_clear = {
        -- "float_win",
        "toggleterm",
        "telescope",
        -- "which-key",
        "renamer",
        "notify",
        -- "nvim-tree",
        -- "neo-tree",
        -- "bufferline", -- better used if background of `neo-tree` or `nvim-tree` is cleared
      },-- "float_win", "toggleterm", "telescope", "which-key", "renamer", "neo-tree", "nvim-tree", "bufferline"
      plugins = {
        bufferline = {
          underline_selected = false,
          underline_visible = false,
        },
        indent_blankline = {
          context_highlight = "default", -- default | pro
          context_start_underline = false,
        },
      },
      ---@param c Colorscheme
      override = function(c) end,
    })
<

- Check my nvim <https://github.com/loctvl842/nvim> to see my plugins setup for `border` if you want to set `background_clear`

For example:

float_win ~

>lua
    require("monokai-pro").setup({
        -- ... your config
        background_clear = { "float_win" }
        -- ... your config
    })
    
    require("cmp").setup({
        -- ... your config
        window = {
          border = "rounded",
        }
        completion = {
            border = "rounded",
        }
        -- ... your config
    })
<

- With the above config:
- With the default config:

Telescope ~

>lua
    require("monokai-pro").setup({
        -- ... your config
        background_clear = {}
        -- ... your config
    })
    
    require("telescope").setup({
        -- ... your config
        defaults = {
          borderchars = { "", " ", "", "", "", " ", " ", "" },
        }
        -- ... your config
    })
<

- With the above config:

- With the default config:


USAGE                                                      *monokai-pro-usage*

- Enable this colorscheme by using the following command after `setup`

>vim
    " Vim Script
    colorscheme monokai-pro
<

>lua
    require("monokai-pro").setup({
      -- ... your config
    })
    -- lua
    vim.cmd([[colorscheme monokai-pro]])
<

- Toenable `monokai-pro` for `Lualine`

>lua
    require('lualine').setup {
      options = {
        -- ...
        theme = 'monokai-pro'
        -- ...
      }
    }
<

- Toenable `monokai-pro` for `barbecue`

>lua
    require('barbecue').setup {
      -- ...
      theme = 'monokai-pro'
      -- ...
    }
<

- Toenable `monokai-pro` for `lightline`

>vim
    " Vim Script
    let g:lightline = {'colorscheme': 'monokaipro'}
<

- Overridefunction:

>lua
    require("monokai-pro").setup({
        -- ...
        override = function
          return {
              Normal = { bg = "000000" }
            }
        end
        -- ...
      })
<


COMMAND                                                  *monokai-pro-command*

- run command `MonokaiProSelect` to launch a menu to choose theme filter (required: nui.nvim <https://github.com/MunifTanjim/nui.nvim>)
- or we can run command `MonokaiPro` with parameter to change theme filter: For example:
    > `MonokaiPro classic`

==============================================================================
1. Links                                                   *monokai-pro-links*

1. *monokai-pro-macbook*: https://user-images.githubusercontent.com/80513079/218453999-87c957f1-658d-49a6-bf67-291d3e46fa9a.png
2. *pro*: https://user-images.githubusercontent.com/80513079/209659184-ed5a28c3-cb7f-4de7-8f7c-5d206dc11540.png
3. *octagon*: https://user-images.githubusercontent.com/80513079/209659175-97db9a95-edd0-4b6e-8087-7fb1aee45c52.png
4. *machine*: https://user-images.githubusercontent.com/80513079/209659194-d9fe09f5-ea35-4130-b2e8-d854b7b6fb72.png
5. *ristretto*: https://user-images.githubusercontent.com/80513079/209659205-90200c24-d302-4b70-811a-36e6e7845f6b.png
6. *spectrum*: https://user-images.githubusercontent.com/80513079/209659126-9df0d401-020f-4b0c-963d-5a930d0a6974.png
7. *classic*: https://user-images.githubusercontent.com/80513079/209659153-9362a05f-2b7f-4b36-acf1-d13bef6a9118.png
8. *bg_clear_cmp*: https://user-images.githubusercontent.com/80513079/218801625-a2b43cb0-175c-4463-9290-a361deb41f6a.png
9. *default_cmp*: https://user-images.githubusercontent.com/80513079/218804686-834c624d-d9bf-45a1-a1bd-a6d05e70e1b8.png
10. *removed_border_telescope*: https://user-images.githubusercontent.com/80513079/218804055-a5cbf9d4-5c0f-4c0f-9cfe-5362af3714e8.png
11. *default_telescope*: https://user-images.githubusercontent.com/80513079/218803566-56852087-8d3c-410c-854a-89bb49f8d981.png

Generated by panvimdoc <https://github.com/kdheepak/panvimdoc>

vim:tw=78:ts=8:noet:ft=help:norl:
